…
# inspect the individual matrices
tidy_theta <- tidy(lda, matrix = "theta")

tidy_theta
#> # A tibble: 500 x 3
#>    document topic   theta
#>    <chr>    <dbl>   <dbl>
#>  1 8574224      1 0.00739
#>  2 8574224      2 0.00217
#>  3 8574224      3 0.00304
#>  4 8574224      4 0.929  
#>  5 8574224      5 0.0257 
#>  6 8574224      6 0.00217
#>  7 8574224      7 0.00217
#>  8 8574224      8 0.0222 
#>  9 8574224      9 0.00217
#> 10 8574224     10 0.00391
#> # … with 490 more rows

tidy_phi <- tidy(lda, matrix = "phi")

tidy_phi
#> # A tibble: 15,970 x 3
#>    topic token              phi
#>    <dbl> <chr>            <dbl>
#>  1     1 adolescence  0.0000771
#>  2     1 age          0.0000771
#>  3     1 application  0.0000771
#>  4     1 depressive   0.0000771
#>  5     1 disorder     0.0000771
#>  6     1 emotionality 0.000200 
#>  7     1 information  0.00341  
#>  8     1 mdd          0.0000771
#>  9     1 onset        0.0000771
#> 10     1 onset.mdd    0.0000771
#> # … with 15,960 more rows

tidy_gamma <- tidy(lda, matrix = "gamma")

tidy_gamma
#> # A tibble: 15,970 x 3
#>    topic token          gamma
#>    <dbl> <chr>          <dbl>
#>  1     1 adolescence  0.00750
#>  2     1 age          0.00873
#>  3     1 application  0.00759
#>  4     1 depressive   0.0193 
#>  5     1 disorder     0.0193 
#>  6     1 emotionality 0.0502 
#>  7     1 information  0.291  
#>  8     1 mdd          0.0107 
#>  9     1 onset        0.00747
#> 10     1 onset.mdd    0.0193 
#> # … with 15,960 more rows
…
